{
     	"config":
	{
        	"chainId": 1,
        	"homesteadBlock": 0,
        	"eip155Block": 0,
        	"eip158Block": 0
    	},

	"difficulty": "0x4000",
    	"gasLimit": "2000000000000000",
    	"alloc":
	{

      		"0xa4be81b219d0dfa88f3154f5a260f48b0ade71b5":
		{"balance" : "100000000000000000000000000000000000"},

      		"0x81e5e0abf9f4d2a84e62c51642dfa23c17d0bf51":
		{"balance" : "100000000000000000000000000000000000"},

      		"0x2ee58dcf0ec09bea50eceb18573ad5efd374e580":
		{"balance" : "100000000000000000000000000000000000"},

		"0x1814ff5bc6916cccc494acaeee39cf4bc68b794c":
		{"balance" : "100000000000000000000000000000000000"},

		"0x177b3d10d6d905705afb999ad6930f81ad6d3a01":
		{"balance" : "100000000000000000000000000000000000"},

		"0x68b9d7b59e778fcac036fc5435b7c3fbc170f807":
		{"balance" : "100000000000000000000000000000000000"},

		"0xb910490cdf2e96afe55b46a6f1cb7719a6a9f55b":
		{"balance" : "100000000000000000000000000000000000"},

		"0xf451cc018b8deb3f1e90bdd6e78210bf362a5e09":
		{"balance" : "100000000000000000000000000000000000"},

		"0xb825ac87c2cb92c81b0d37d1a615346a8067e954":
		{"balance" : "100000000000000000000000000000000000"},

		"0x4dbefb73ebf06176e0058f8c2479f0e92e74939f":
		{"balance" : "100000000000000000000000000000000000"},

		"0x9c6779828b0c6085d671c75840b6eb0fffb4db40":
		{"balance" : "100000000000000000000000000000000000"},

		"0xcbe8ac160bc4632dc8ebd06f2eec8e9adf7f7f05":
		{"balance" : "100000000000000000000000000000000000"}

       }
}
